<?xml version="1.0" encoding="UTF-8" standalone="no"?>
<!DOCTYPE svg PUBLIC "-//W3C//DTD SVG 1.1//EN" "http://www.w3.org/Graphics/SVG/1.1/DTD/svg11.dtd">
<svg xmlns="http://www.w3.org/2000/svg" xmlns:xlink="http://www.w3.org/1999/xlink" width="100" height="100" preserveAspectRatio="xMidYMid meet" version="1.1" viewBox="0 0 100 100">
    <defs>
        <path id="c4beYJFsZG" d="M52.64 25.14L53.93 25.31L55.19 25.54L56.44 25.84L57.66 26.2L58.85 26.61L60.02 27.09L61.15 27.62L62.25 28.21L63.32 28.85L64.36 29.54L65.35 30.28L66.31 31.06L67.23 31.89L68.11 32.77L68.94 33.69L69.72 34.65L70.46 35.64L71.15 36.68L71.79 37.75L72.38 38.85L72.91 39.98L73.39 41.15L73.8 42.34L74.16 43.56L74.46 44.81L74.69 46.07L74.86 47.36L74.97 48.67L75 50L74.97 51.33L74.86 52.64L74.69 53.93L74.46 55.19L74.16 56.44L73.8 57.66L73.39 58.85L72.91 60.02L72.38 61.15L71.79 62.25L71.15 63.32L70.46 64.36L69.72 65.35L68.94 66.31L68.11 67.23L67.23 68.11L66.31 68.94L65.35 69.72L64.36 70.46L63.32 71.15L62.25 71.79L61.15 72.38L60.02 72.91L58.85 73.39L57.66 73.8L56.44 74.16L55.19 74.46L53.93 74.69L52.64 74.86L51.33 74.97L50 75L48.67 74.97L47.36 74.86L46.07 74.69L44.81 74.46L43.56 74.16L42.34 73.8L41.15 73.39L39.98 72.91L38.85 72.38L37.75 71.79L36.68 71.15L35.64 70.46L34.65 69.72L33.69 68.94L32.77 68.11L31.89 67.23L31.06 66.31L30.28 65.35L29.54 64.36L28.85 63.32L28.21 62.25L27.62 61.15L27.09 60.02L26.61 58.85L26.2 57.66L25.84 56.44L25.54 55.19L25.31 53.93L25.14 52.64L25.03 51.33L25 50L25.03 48.67L25.14 47.36L25.31 46.07L25.54 44.81L25.84 43.56L26.2 42.34L26.61 41.15L27.09 39.98L27.62 38.85L28.21 37.75L28.85 36.68L29.54 35.64L30.28 34.65L31.06 33.69L31.89 32.77L32.77 31.89L33.69 31.06L34.65 30.28L35.64 29.54L36.68 28.85L37.75 28.21L38.85 27.62L39.98 27.09L41.15 26.61L42.34 26.2L43.56 25.84L44.81 25.54L46.07 25.31L47.36 25.14L48.67 25.03L50 25L51.33 25.03L52.64 25.14ZM47.39 30.17L46.13 30.38L44.89 30.66L43.68 31.02L42.51 31.45L41.37 31.96L40.27 32.53L39.21 33.16L38.19 33.86L37.22 34.62L36.3 35.43L35.43 36.3L34.62 37.22L33.86 38.19L33.16 39.21L32.53 40.27L31.96 41.37L31.45 42.51L31.02 43.68L30.66 44.89L30.38 46.13L30.17 47.39L30.04 48.69L30 50L30.04 51.31L30.17 52.61L30.38 53.87L30.66 55.11L31.02 56.32L31.45 57.49L31.96 58.63L32.53 59.73L33.16 60.79L33.86 61.81L34.62 62.78L35.43 63.7L36.3 64.57L37.22 65.38L38.19 66.14L39.21 66.84L40.27 67.47L41.37 68.04L42.51 68.55L43.68 68.98L44.89 69.34L46.13 69.62L47.39 69.83L48.69 69.96L50 70L51.31 69.96L52.61 69.83L53.87 69.62L55.11 69.34L56.32 68.98L57.49 68.55L58.63 68.04L59.73 67.47L60.79 66.84L61.81 66.14L62.78 65.38L63.7 64.57L64.57 63.7L65.38 62.78L66.14 61.81L66.84 60.79L67.47 59.73L68.04 58.63L68.55 57.49L68.98 56.32L69.34 55.11L69.62 53.87L69.83 52.61L69.96 51.31L70 50L69.96 48.69L69.83 47.39L69.62 46.13L69.34 44.89L68.98 43.68L68.55 42.51L68.04 41.37L67.47 40.27L66.84 39.21L66.14 38.19L65.38 37.22L64.57 36.3L63.7 35.43L62.78 34.62L61.81 33.86L60.79 33.16L59.73 32.53L58.63 31.96L57.49 31.45L56.32 31.02L55.11 30.66L53.87 30.38L52.61 30.17L51.31 30.04L50 30L48.69 30.04L47.39 30.17Z"/>
    </defs>
    <g>
        <g>
            <g>
                <use fill="white" fill-opacity="1" opacity="1" xlink:href="#c4beYJFsZG"/>
            </g>
        </g>
    </g>
</svg>
