<?xml version="1.0" encoding="UTF-8" standalone="no"?>
<!DOCTYPE svg PUBLIC "-//W3C//DTD SVG 1.1//EN" "http://www.w3.org/Graphics/SVG/1.1/DTD/svg11.dtd">
<svg xmlns="http://www.w3.org/2000/svg" xmlns:xlink="http://www.w3.org/1999/xlink" width="100" height="100" preserveAspectRatio="xMidYMid meet" version="1.1" viewBox="0 0 100 100">
    <defs>
        <path id="a3YCZSEdi" d="M63 35C63.5 35 63.91 35.41 63.91 35.91C63.91 41.16 63.91 55.97 63.91 61.21C63.91 61.72 63.5 62.13 63 62.13C57.68 62.13 42.64 62.13 37.32 62.13C36.82 62.13 36.41 61.72 36.41 61.21C36.41 55.97 36.41 41.16 36.41 35.91C36.41 35.41 36.82 35 37.32 35C42.64 35 57.68 35 63 35Z"/>
        <path id="e62SCiW6Cn" d="M60.03 37.6C61.11 37.6 61.98 38.47 61.98 39.54C61.98 41.97 61.98 47.3 61.98 49.72C61.98 50.8 61.11 51.67 60.03 51.67C55.69 51.67 44.62 51.67 40.28 51.67C39.21 51.67 38.34 50.8 38.34 49.72C38.34 47.3 38.34 41.97 38.34 39.54C38.34 38.47 39.21 37.6 40.28 37.6C44.62 37.6 55.69 37.6 60.03 37.6Z"/>
        <path id="b1btBNNise" d="M38.64 57.77C39.32 57.77 39.88 58.32 39.88 59C39.88 60.2 39.88 62.57 39.88 63.76C39.88 64.45 39.32 65 38.64 65C38.3 65 38.52 65 38.18 65C37.5 65 36.95 64.45 36.95 63.76C36.95 62.57 36.95 60.2 36.95 59C36.95 58.32 37.5 57.77 38.18 57.77C38.52 57.77 38.3 57.77 38.64 57.77Z"/>
        <path id="d2QiPj7yj4" d="M62.13 57.77C62.82 57.77 63.37 58.32 63.37 59C63.37 60.2 63.37 62.57 63.37 63.76C63.37 64.45 62.82 65 62.13 65C61.79 65 62.01 65 61.67 65C60.99 65 60.44 64.45 60.44 63.76C60.44 62.57 60.44 60.2 60.44 59C60.44 58.32 60.99 57.77 61.67 57.77C62.01 57.77 61.79 57.77 62.13 57.77Z"/>
        <path id="abn3MZaGX" d="M42.59 56.48C42.59 57.48 41.79 58.28 40.81 58.28C39.82 58.28 39.02 57.48 39.02 56.48C39.02 55.49 39.82 54.69 40.81 54.69C41.79 54.69 42.59 55.49 42.59 56.48Z"/>
        <path id="e3Pm1BfV5z" d="M61.3 56.48C61.3 57.48 60.5 58.28 59.51 58.28C58.53 58.28 57.73 57.48 57.73 56.48C57.73 55.49 58.53 54.69 59.51 54.69C60.5 54.69 61.3 55.49 61.3 56.48Z"/>
    </defs>
    <g>
        <g>
            <g>
                <use fill="#000000" fill-opacity="1" opacity="1" xlink:href="#a3YCZSEdi"/>
            </g>
            <g>
                <use fill="#ffffff" fill-opacity="1" opacity="1" xlink:href="#e62SCiW6Cn"/>
            </g>
            <g>
                <g>
                    <use fill="#000000" fill-opacity="1" opacity="1" xlink:href="#b1btBNNise"/>
                </g>
                <g>
                    <use fill="#000000" fill-opacity="1" opacity="1" xlink:href="#d2QiPj7yj4"/>
                </g>
            </g>
            <g>
                <use fill="#ffffff" fill-opacity="1" opacity="1" xlink:href="#abn3MZaGX"/>
            </g>
            <g>
                <use fill="#ffffff" fill-opacity="1" opacity="1" xlink:href="#e3Pm1BfV5z"/>
            </g>
        </g>
    </g>
</svg>
